{
  "name": "rest-docs-for-dac-nodejs",
  "version": "1.0.0",
  "dependencies": {
    "chai": {
      "version": "3.5.0",
      "from": "chai@latest",
      "resolved": "https://registry.npmjs.org/chai/-/chai-3.5.0.tgz",
      "dependencies": {
        "assertion-error": {
          "version": "1.0.2",
          "from": "assertion-error@>=1.0.1 <2.0.0",
          "resolved": "https://registry.npmjs.org/assertion-error/-/assertion-error-1.0.2.tgz"
        },
        "deep-eql": {
          "version": "0.1.3",
          "from": "deep-eql@>=0.1.3 <0.2.0",
          "resolved": "https://registry.npmjs.org/deep-eql/-/deep-eql-0.1.3.tgz",
          "dependencies": {
            "type-detect": {
              "version": "0.1.1",
              "from": "type-detect@0.1.1",
              "resolved": "https://registry.npmjs.org/type-detect/-/type-detect-0.1.1.tgz"
            }
          }
        },
        "type-detect": {
          "version": "1.0.0",
          "from": "type-detect@>=1.0.0 <2.0.0",
          "resolved": "https://registry.npmjs.org/type-detect/-/type-detect-1.0.0.tgz"
        }
      }
    },
    "cheerio": {
      "version": "0.20.0",
      "from": "cheerio@latest",
      "resolved": "https://registry.npmjs.org/cheerio/-/cheerio-0.20.0.tgz",
      "dependencies": {
        "css-select": {
          "version": "1.2.0",
          "from": "css-select@>=1.2.0 <1.3.0",
          "resolved": "https://registry.npmjs.org/css-select/-/css-select-1.2.0.tgz",
          "dependencies": {
            "css-what": {
              "version": "2.1.0",
              "from": "css-what@>=2.1.0 <2.2.0",
              "resolved": "https://registry.npmjs.org/css-what/-/css-what-2.1.0.tgz"
            },
            "domutils": {
              "version": "1.5.1",
              "from": "domutils@>=1.5.0 <1.6.0",
              "resolved": "https://registry.npmjs.org/domutils/-/domutils-1.5.1.tgz",
              "dependencies": {
                "domelementtype": {
                  "version": "1.3.0",
                  "from": "domelementtype@>=1.0.0 <2.0.0",
                  "resolved": "https://registry.npmjs.org/domelementtype/-/domelementtype-1.3.0.tgz"
                }
              }
            },
            "boolbase": {
              "version": "1.0.0",
              "from": "boolbase@>=1.0.0 <1.1.0",
              "resolved": "https://registry.npmjs.org/boolbase/-/boolbase-1.0.0.tgz"
            },
            "nth-check": {
              "version": "1.0.1",
              "from": "nth-check@>=1.0.1 <1.1.0",
              "resolved": "https://registry.npmjs.org/nth-check/-/nth-check-1.0.1.tgz"
            }
          }
        },
        "entities": {
          "version": "1.1.1",
          "from": "entities@>=1.1.1 <1.2.0",
          "resolved": "https://registry.npmjs.org/entities/-/entities-1.1.1.tgz"
        },
        "htmlparser2": {
          "version": "3.8.3",
          "from": "htmlparser2@>=3.8.1 <3.9.0",
          "resolved": "https://registry.npmjs.org/htmlparser2/-/htmlparser2-3.8.3.tgz",
          "dependencies": {
            "domhandler": {
              "version": "2.3.0",
              "from": "domhandler@>=2.3.0 <2.4.0",
              "resolved": "https://registry.npmjs.org/domhandler/-/domhandler-2.3.0.tgz"
            },
            "domutils": {
              "version": "1.5.1",
              "from": "domutils@>=1.5.0 <1.6.0",
              "resolved": "https://registry.npmjs.org/domutils/-/domutils-1.5.1.tgz"
            },
            "domelementtype": {
              "version": "1.3.0",
              "from": "domelementtype@>=1.0.0 <2.0.0",
              "resolved": "https://registry.npmjs.org/domelementtype/-/domelementtype-1.3.0.tgz"
            },
            "readable-stream": {
              "version": "1.1.14",
              "from": "readable-stream@>=1.1.0 <1.2.0",
              "resolved": "https://registry.npmjs.org/readable-stream/-/readable-stream-1.1.14.tgz",
              "dependencies": {
                "core-util-is": {
                  "version": "1.0.2",
                  "from": "core-util-is@>=1.0.0 <1.1.0",
                  "resolved": "https://registry.npmjs.org/core-util-is/-/core-util-is-1.0.2.tgz"
                },
                "isarray": {
                  "version": "0.0.1",
                  "from": "isarray@0.0.1",
                  "resolved": "https://registry.npmjs.org/isarray/-/isarray-0.0.1.tgz"
                },
                "string_decoder": {
                  "version": "0.10.31",
                  "from": "string_decoder@>=0.10.0 <0.11.0",
                  "resolved": "https://registry.npmjs.org/string_decoder/-/string_decoder-0.10.31.tgz"
                },
                "inherits": {
                  "version": "2.0.1",
                  "from": "inherits@>=2.0.1 <2.1.0",
                  "resolved": "https://registry.npmjs.org/inherits/-/inherits-2.0.1.tgz"
                }
              }
            },
            "entities": {
              "version": "1.0.0",
              "from": "entities@>=1.0.0 <1.1.0",
              "resolved": "https://registry.npmjs.org/entities/-/entities-1.0.0.tgz"
            }
          }
        },
        "dom-serializer": {
          "version": "0.1.0",
          "from": "dom-serializer@>=0.1.0 <0.2.0",
          "resolved": "https://registry.npmjs.org/dom-serializer/-/dom-serializer-0.1.0.tgz",
          "dependencies": {
            "domelementtype": {
              "version": "1.1.3",
              "from": "domelementtype@>=1.1.1 <1.2.0",
              "resolved": "https://registry.npmjs.org/domelementtype/-/domelementtype-1.1.3.tgz"
            }
          }
        },
        "lodash": {
          "version": "4.13.1",
          "from": "lodash@>=4.1.0 <5.0.0",
          "resolved": "https://registry.npmjs.org/lodash/-/lodash-4.13.1.tgz"
        },
        "jsdom": {
          "version": "7.2.2",
          "from": "jsdom@>=7.0.2 <8.0.0",
          "resolved": "https://registry.npmjs.org/jsdom/-/jsdom-7.2.2.tgz",
          "dependencies": {
            "abab": {
              "version": "1.0.3",
              "from": "abab@>=1.0.0 <2.0.0",
              "resolved": "https://registry.npmjs.org/abab/-/abab-1.0.3.tgz"
            },
            "acorn": {
              "version": "2.7.0",
              "from": "acorn@>=2.4.0 <3.0.0",
              "resolved": "https://registry.npmjs.org/acorn/-/acorn-2.7.0.tgz"
            },
            "acorn-globals": {
              "version": "1.0.9",
              "from": "acorn-globals@>=1.0.4 <2.0.0",
              "resolved": "https://registry.npmjs.org/acorn-globals/-/acorn-globals-1.0.9.tgz"
            },
            "cssom": {
              "version": "0.3.1",
              "from": "cssom@>=0.3.0 <0.4.0",
              "resolved": "https://registry.npmjs.org/cssom/-/cssom-0.3.1.tgz"
            },
            "cssstyle": {
              "version": "0.2.36",
              "from": "cssstyle@>=0.2.29 <0.3.0",
              "resolved": "https://registry.npmjs.org/cssstyle/-/cssstyle-0.2.36.tgz"
            },
            "escodegen": {
              "version": "1.8.0",
              "from": "escodegen@>=1.6.1 <2.0.0",
              "resolved": "https://registry.npmjs.org/escodegen/-/escodegen-1.8.0.tgz",
              "dependencies": {
                "estraverse": {
                  "version": "1.9.3",
                  "from": "estraverse@>=1.9.1 <2.0.0",
                  "resolved": "https://registry.npmjs.org/estraverse/-/estraverse-1.9.3.tgz"
                },
                "esutils": {
                  "version": "2.0.2",
                  "from": "esutils@>=2.0.2 <3.0.0",
                  "resolved": "https://registry.npmjs.org/esutils/-/esutils-2.0.2.tgz"
                },
                "esprima": {
                  "version": "2.7.2",
                  "from": "esprima@>=2.7.1 <3.0.0",
                  "resolved": "https://registry.npmjs.org/esprima/-/esprima-2.7.2.tgz"
                },
                "optionator": {
                  "version": "0.8.1",
                  "from": "optionator@>=0.8.1 <0.9.0",
                  "resolved": "https://registry.npmjs.org/optionator/-/optionator-0.8.1.tgz",
                  "dependencies": {
                    "prelude-ls": {
                      "version": "1.1.2",
                      "from": "prelude-ls@>=1.1.2 <1.2.0",
                      "resolved": "https://registry.npmjs.org/prelude-ls/-/prelude-ls-1.1.2.tgz"
                    },
                    "deep-is": {
                      "version": "0.1.3",
                      "from": "deep-is@>=0.1.3 <0.2.0",
                      "resolved": "https://registry.npmjs.org/deep-is/-/deep-is-0.1.3.tgz"
                    },
                    "wordwrap": {
                      "version": "1.0.0",
                      "from": "wordwrap@>=1.0.0 <1.1.0",
                      "resolved": "https://registry.npmjs.org/wordwrap/-/wordwrap-1.0.0.tgz"
                    },
                    "type-check": {
                      "version": "0.3.2",
                      "from": "type-check@>=0.3.2 <0.4.0",
                      "resolved": "https://registry.npmjs.org/type-check/-/type-check-0.3.2.tgz"
                    },
                    "levn": {
                      "version": "0.3.0",
                      "from": "levn@>=0.3.0 <0.4.0",
                      "resolved": "https://registry.npmjs.org/levn/-/levn-0.3.0.tgz"
                    },
                    "fast-levenshtein": {
                      "version": "1.1.3",
                      "from": "fast-levenshtein@>=1.1.0 <2.0.0",
                      "resolved": "https://registry.npmjs.org/fast-levenshtein/-/fast-levenshtein-1.1.3.tgz"
                    }
                  }
                },
                "source-map": {
                  "version": "0.2.0",
                  "from": "source-map@>=0.2.0 <0.3.0",
                  "resolved": "https://registry.npmjs.org/source-map/-/source-map-0.2.0.tgz",
                  "dependencies": {
                    "amdefine": {
                      "version": "1.0.0",
                      "from": "amdefine@>=0.0.4",
                      "resolved": "https://registry.npmjs.org/amdefine/-/amdefine-1.0.0.tgz"
                    }
                  }
                }
              }
            },
            "nwmatcher": {
              "version": "1.3.8",
              "from": "nwmatcher@>=1.3.7 <2.0.0",
              "resolved": "https://registry.npmjs.org/nwmatcher/-/nwmatcher-1.3.8.tgz"
            },
            "parse5": {
              "version": "1.5.1",
              "from": "parse5@>=1.5.1 <2.0.0",
              "resolved": "https://registry.npmjs.org/parse5/-/parse5-1.5.1.tgz"
            },
            "request": {
              "version": "2.73.0",
              "from": "request@>=2.55.0 <3.0.0",
              "resolved": "https://registry.npmjs.org/request/-/request-2.73.0.tgz",
              "dependencies": {
                "aws-sign2": {
                  "version": "0.6.0",
                  "from": "aws-sign2@>=0.6.0 <0.7.0",
                  "resolved": "https://registry.npmjs.org/aws-sign2/-/aws-sign2-0.6.0.tgz"
                },
                "aws4": {
                  "version": "1.4.1",
                  "from": "aws4@>=1.2.1 <2.0.0",
                  "resolved": "https://registry.npmjs.org/aws4/-/aws4-1.4.1.tgz"
                },
                "bl": {
                  "version": "1.1.2",
                  "from": "bl@>=1.1.2 <1.2.0",
                  "resolved": "https://registry.npmjs.org/bl/-/bl-1.1.2.tgz",
                  "dependencies": {
                    "readable-stream": {
                      "version": "2.0.6",
                      "from": "readable-stream@>=2.0.5 <2.1.0",
                      "resolved": "https://registry.npmjs.org/readable-stream/-/readable-stream-2.0.6.tgz",
                      "dependencies": {
                        "core-util-is": {
                          "version": "1.0.2",
                          "from": "core-util-is@>=1.0.0 <1.1.0",
                          "resolved": "https://registry.npmjs.org/core-util-is/-/core-util-is-1.0.2.tgz"
                        },
                        "inherits": {
                          "version": "2.0.1",
                          "from": "inherits@>=2.0.1 <2.1.0",
                          "resolved": "https://registry.npmjs.org/inherits/-/inherits-2.0.1.tgz"
                        },
                        "isarray": {
                          "version": "1.0.0",
                          "from": "isarray@>=1.0.0 <1.1.0",
                          "resolved": "https://registry.npmjs.org/isarray/-/isarray-1.0.0.tgz"
                        },
                        "process-nextick-args": {
                          "version": "1.0.7",
                          "from": "process-nextick-args@>=1.0.6 <1.1.0",
                          "resolved": "https://registry.npmjs.org/process-nextick-args/-/process-nextick-args-1.0.7.tgz"
                        },
                        "string_decoder": {
                          "version": "0.10.31",
                          "from": "string_decoder@>=0.10.0 <0.11.0",
                          "resolved": "https://registry.npmjs.org/string_decoder/-/string_decoder-0.10.31.tgz"
                        },
                        "util-deprecate": {
                          "version": "1.0.2",
                          "from": "util-deprecate@>=1.0.1 <1.1.0",
                          "resolved": "https://registry.npmjs.org/util-deprecate/-/util-deprecate-1.0.2.tgz"
                        }
                      }
                    }
                  }
                },
                "caseless": {
                  "version": "0.11.0",
                  "from": "caseless@>=0.11.0 <0.12.0",
                  "resolved": "https://registry.npmjs.org/caseless/-/caseless-0.11.0.tgz"
                },
                "combined-stream": {
                  "version": "1.0.5",
                  "from": "combined-stream@>=1.0.5 <1.1.0",
                  "resolved": "https://registry.npmjs.org/combined-stream/-/combined-stream-1.0.5.tgz",
                  "dependencies": {
                    "delayed-stream": {
                      "version": "1.0.0",
                      "from": "delayed-stream@>=1.0.0 <1.1.0",
                      "resolved": "https://registry.npmjs.org/delayed-stream/-/delayed-stream-1.0.0.tgz"
                    }
                  }
                },
                "extend": {
                  "version": "3.0.0",
                  "from": "extend@>=3.0.0 <3.1.0",
                  "resolved": "https://registry.npmjs.org/extend/-/extend-3.0.0.tgz"
                },
                "forever-agent": {
                  "version": "0.6.1",
                  "from": "forever-agent@>=0.6.1 <0.7.0",
                  "resolved": "https://registry.npmjs.org/forever-agent/-/forever-agent-0.6.1.tgz"
                },
                "form-data": {
                  "version": "1.0.0-rc4",
                  "from": "form-data@>=1.0.0-rc4 <1.1.0",
                  "resolved": "https://registry.npmjs.org/form-data/-/form-data-1.0.0-rc4.tgz",
                  "dependencies": {
                    "async": {
                      "version": "1.5.2",
                      "from": "async@>=1.5.2 <2.0.0",
                      "resolved": "https://registry.npmjs.org/async/-/async-1.5.2.tgz"
                    }
                  }
                },
                "har-validator": {
                  "version": "2.0.6",
                  "from": "har-validator@>=2.0.6 <2.1.0",
                  "resolved": "https://registry.npmjs.org/har-validator/-/har-validator-2.0.6.tgz",
                  "dependencies": {
                    "chalk": {
                      "version": "1.1.3",
                      "from": "chalk@>=1.1.1 <2.0.0",
                      "resolved": "https://registry.npmjs.org/chalk/-/chalk-1.1.3.tgz",
                      "dependencies": {
                        "ansi-styles": {
                          "version": "2.2.1",
                          "from": "ansi-styles@>=2.2.1 <3.0.0",
                          "resolved": "https://registry.npmjs.org/ansi-styles/-/ansi-styles-2.2.1.tgz"
                        },
                        "escape-string-regexp": {
                          "version": "1.0.5",
                          "from": "escape-string-regexp@>=1.0.2 <2.0.0",
                          "resolved": "https://registry.npmjs.org/escape-string-regexp/-/escape-string-regexp-1.0.5.tgz"
                        },
                        "has-ansi": {
                          "version": "2.0.0",
                          "from": "has-ansi@>=2.0.0 <3.0.0",
                          "resolved": "https://registry.npmjs.org/has-ansi/-/has-ansi-2.0.0.tgz",
                          "dependencies": {
                            "ansi-regex": {
                              "version": "2.0.0",
                              "from": "ansi-regex@>=2.0.0 <3.0.0",
                              "resolved": "https://registry.npmjs.org/ansi-regex/-/ansi-regex-2.0.0.tgz"
                            }
                          }
                        },
                        "strip-ansi": {
                          "version": "3.0.1",
                          "from": "strip-ansi@>=3.0.0 <4.0.0",
                          "resolved": "https://registry.npmjs.org/strip-ansi/-/strip-ansi-3.0.1.tgz",
                          "dependencies": {
                            "ansi-regex": {
                              "version": "2.0.0",
                              "from": "ansi-regex@>=2.0.0 <3.0.0",
                              "resolved": "https://registry.npmjs.org/ansi-regex/-/ansi-regex-2.0.0.tgz"
                            }
                          }
                        },
                        "supports-color": {
                          "version": "2.0.0",
                          "from": "supports-color@>=2.0.0 <3.0.0",
                          "resolved": "https://registry.npmjs.org/supports-color/-/supports-color-2.0.0.tgz"
                        }
                      }
                    },
                    "commander": {
                      "version": "2.9.0",
                      "from": "commander@>=2.9.0 <3.0.0",
                      "resolved": "https://registry.npmjs.org/commander/-/commander-2.9.0.tgz",
                      "dependencies": {
                        "graceful-readlink": {
                          "version": "1.0.1",
                          "from": "graceful-readlink@>=1.0.0",
                          "resolved": "https://registry.npmjs.org/graceful-readlink/-/graceful-readlink-1.0.1.tgz"
                        }
                      }
                    },
                    "is-my-json-valid": {
                      "version": "2.13.1",
                      "from": "is-my-json-valid@>=2.12.4 <3.0.0",
                      "resolved": "https://registry.npmjs.org/is-my-json-valid/-/is-my-json-valid-2.13.1.tgz",
                      "dependencies": {
                        "generate-function": {
                          "version": "2.0.0",
                          "from": "generate-function@>=2.0.0 <3.0.0",
                          "resolved": "https://registry.npmjs.org/generate-function/-/generate-function-2.0.0.tgz"
                        },
                        "generate-object-property": {
                          "version": "1.2.0",
                          "from": "generate-object-property@>=1.1.0 <2.0.0",
                          "resolved": "https://registry.npmjs.org/generate-object-property/-/generate-object-property-1.2.0.tgz",
                          "dependencies": {
                            "is-property": {
                              "version": "1.0.2",
                              "from": "is-property@>=1.0.0 <2.0.0",
                              "resolved": "https://registry.npmjs.org/is-property/-/is-property-1.0.2.tgz"
                            }
                          }
                        },
                        "jsonpointer": {
                          "version": "2.0.0",
                          "from": "jsonpointer@2.0.0",
                          "resolved": "https://registry.npmjs.org/jsonpointer/-/jsonpointer-2.0.0.tgz"
                        },
                        "xtend": {
                          "version": "4.0.1",
                          "from": "xtend@>=4.0.0 <5.0.0",
                          "resolved": "https://registry.npmjs.org/xtend/-/xtend-4.0.1.tgz"
                        }
                      }
                    },
                    "pinkie-promise": {
                      "version": "2.0.1",
                      "from": "pinkie-promise@>=2.0.0 <3.0.0",
                      "resolved": "https://registry.npmjs.org/pinkie-promise/-/pinkie-promise-2.0.1.tgz",
                      "dependencies": {
                        "pinkie": {
                          "version": "2.0.4",
                          "from": "pinkie@>=2.0.0 <3.0.0",
                          "resolved": "https://registry.npmjs.org/pinkie/-/pinkie-2.0.4.tgz"
                        }
                      }
                    }
                  }
                },
                "hawk": {
                  "version": "3.1.3",
                  "from": "hawk@>=3.1.3 <3.2.0",
                  "resolved": "https://registry.npmjs.org/hawk/-/hawk-3.1.3.tgz",
                  "dependencies": {
                    "hoek": {
                      "version": "2.16.3",
                      "from": "hoek@>=2.0.0 <3.0.0",
                      "resolved": "https://registry.npmjs.org/hoek/-/hoek-2.16.3.tgz"
                    },
                    "boom": {
                      "version": "2.10.1",
                      "from": "boom@>=2.0.0 <3.0.0",
                      "resolved": "https://registry.npmjs.org/boom/-/boom-2.10.1.tgz"
                    },
                    "cryptiles": {
                      "version": "2.0.5",
                      "from": "cryptiles@>=2.0.0 <3.0.0",
                      "resolved": "https://registry.npmjs.org/cryptiles/-/cryptiles-2.0.5.tgz"
                    },
                    "sntp": {
                      "version": "1.0.9",
                      "from": "sntp@>=1.0.0 <2.0.0",
                      "resolved": "https://registry.npmjs.org/sntp/-/sntp-1.0.9.tgz"
                    }
                  }
                },
                "http-signature": {
                  "version": "1.1.1",
                  "from": "http-signature@>=1.1.0 <1.2.0",
                  "resolved": "https://registry.npmjs.org/http-signature/-/http-signature-1.1.1.tgz",
                  "dependencies": {
                    "assert-plus": {
                      "version": "0.2.0",
                      "from": "assert-plus@>=0.2.0 <0.3.0",
                      "resolved": "https://registry.npmjs.org/assert-plus/-/assert-plus-0.2.0.tgz"
                    },
                    "jsprim": {
                      "version": "1.3.0",
                      "from": "jsprim@>=1.2.2 <2.0.0",
                      "resolved": "https://registry.npmjs.org/jsprim/-/jsprim-1.3.0.tgz",
                      "dependencies": {
                        "extsprintf": {
                          "version": "1.0.2",
                          "from": "extsprintf@1.0.2",
                          "resolved": "https://registry.npmjs.org/extsprintf/-/extsprintf-1.0.2.tgz"
                        },
                        "json-schema": {
                          "version": "0.2.2",
                          "from": "json-schema@0.2.2",
                          "resolved": "https://registry.npmjs.org/json-schema/-/json-schema-0.2.2.tgz"
                        },
                        "verror": {
                          "version": "1.3.6",
                          "from": "verror@1.3.6",
                          "resolved": "https://registry.npmjs.org/verror/-/verror-1.3.6.tgz"
                        }
                      }
                    },
                    "sshpk": {
                      "version": "1.8.3",
                      "from": "sshpk@>=1.7.0 <2.0.0",
                      "resolved": "https://registry.npmjs.org/sshpk/-/sshpk-1.8.3.tgz",
                      "dependencies": {
                        "asn1": {
                          "version": "0.2.3",
                          "from": "asn1@>=0.2.3 <0.3.0",
                          "resolved": "https://registry.npmjs.org/asn1/-/asn1-0.2.3.tgz"
                        },
                        "assert-plus": {
                          "version": "1.0.0",
                          "from": "assert-plus@>=1.0.0 <2.0.0",
                          "resolved": "https://registry.npmjs.org/assert-plus/-/assert-plus-1.0.0.tgz"
                        },
                        "dashdash": {
                          "version": "1.14.0",
                          "from": "dashdash@>=1.12.0 <2.0.0",
                          "resolved": "https://registry.npmjs.org/dashdash/-/dashdash-1.14.0.tgz"
                        },
                        "getpass": {
                          "version": "0.1.6",
                          "from": "getpass@>=0.1.1 <0.2.0",
                          "resolved": "https://registry.npmjs.org/getpass/-/getpass-0.1.6.tgz"
                        },
                        "jsbn": {
                          "version": "0.1.0",
                          "from": "jsbn@>=0.1.0 <0.2.0",
                          "resolved": "https://registry.npmjs.org/jsbn/-/jsbn-0.1.0.tgz"
                        },
                        "tweetnacl": {
                          "version": "0.13.3",
                          "from": "tweetnacl@>=0.13.0 <0.14.0",
                          "resolved": "https://registry.npmjs.org/tweetnacl/-/tweetnacl-0.13.3.tgz"
                        },
                        "jodid25519": {
                          "version": "1.0.2",
                          "from": "jodid25519@>=1.0.0 <2.0.0",
                          "resolved": "https://registry.npmjs.org/jodid25519/-/jodid25519-1.0.2.tgz"
                        },
                        "ecc-jsbn": {
                          "version": "0.1.1",
                          "from": "ecc-jsbn@>=0.1.1 <0.2.0",
                          "resolved": "https://registry.npmjs.org/ecc-jsbn/-/ecc-jsbn-0.1.1.tgz"
                        }
                      }
                    }
                  }
                },
                "is-typedarray": {
                  "version": "1.0.0",
                  "from": "is-typedarray@>=1.0.0 <1.1.0",
                  "resolved": "https://registry.npmjs.org/is-typedarray/-/is-typedarray-1.0.0.tgz"
                },
                "isstream": {
                  "version": "0.1.2",
                  "from": "isstream@>=0.1.2 <0.2.0",
                  "resolved": "https://registry.npmjs.org/isstream/-/isstream-0.1.2.tgz"
                },
                "json-stringify-safe": {
                  "version": "5.0.1",
                  "from": "json-stringify-safe@>=5.0.1 <5.1.0",
                  "resolved": "https://registry.npmjs.org/json-stringify-safe/-/json-stringify-safe-5.0.1.tgz"
                },
                "mime-types": {
                  "version": "2.1.11",
                  "from": "mime-types@>=2.1.7 <2.2.0",
                  "resolved": "https://registry.npmjs.org/mime-types/-/mime-types-2.1.11.tgz",
                  "dependencies": {
                    "mime-db": {
                      "version": "1.23.0",
                      "from": "mime-db@>=1.23.0 <1.24.0",
                      "resolved": "https://registry.npmjs.org/mime-db/-/mime-db-1.23.0.tgz"
                    }
                  }
                },
                "node-uuid": {
                  "version": "1.4.7",
                  "from": "node-uuid@>=1.4.7 <1.5.0",
                  "resolved": "https://registry.npmjs.org/node-uuid/-/node-uuid-1.4.7.tgz"
                },
                "oauth-sign": {
                  "version": "0.8.2",
                  "from": "oauth-sign@>=0.8.1 <0.9.0",
                  "resolved": "https://registry.npmjs.org/oauth-sign/-/oauth-sign-0.8.2.tgz"
                },
                "qs": {
                  "version": "6.2.0",
                  "from": "qs@>=6.2.0 <6.3.0",
                  "resolved": "https://registry.npmjs.org/qs/-/qs-6.2.0.tgz"
                },
                "stringstream": {
                  "version": "0.0.5",
                  "from": "stringstream@>=0.0.4 <0.1.0",
                  "resolved": "https://registry.npmjs.org/stringstream/-/stringstream-0.0.5.tgz"
                },
                "tunnel-agent": {
                  "version": "0.4.3",
                  "from": "tunnel-agent@>=0.4.1 <0.5.0",
                  "resolved": "https://registry.npmjs.org/tunnel-agent/-/tunnel-agent-0.4.3.tgz"
                }
              }
            },
            "sax": {
              "version": "1.2.1",
              "from": "sax@>=1.1.4 <2.0.0",
              "resolved": "https://registry.npmjs.org/sax/-/sax-1.2.1.tgz"
            },
            "symbol-tree": {
              "version": "3.1.4",
              "from": "symbol-tree@>=3.1.0 <4.0.0",
              "resolved": "https://registry.npmjs.org/symbol-tree/-/symbol-tree-3.1.4.tgz"
            },
            "tough-cookie": {
              "version": "2.2.2",
              "from": "tough-cookie@>=2.2.0 <3.0.0",
              "resolved": "https://registry.npmjs.org/tough-cookie/-/tough-cookie-2.2.2.tgz"
            },
            "webidl-conversions": {
              "version": "2.0.1",
              "from": "webidl-conversions@>=2.0.0 <3.0.0",
              "resolved": "https://registry.npmjs.org/webidl-conversions/-/webidl-conversions-2.0.1.tgz"
            },
            "whatwg-url-compat": {
              "version": "0.6.5",
              "from": "whatwg-url-compat@>=0.6.5 <0.7.0",
              "resolved": "https://registry.npmjs.org/whatwg-url-compat/-/whatwg-url-compat-0.6.5.tgz",
              "dependencies": {
                "tr46": {
                  "version": "0.0.3",
                  "from": "tr46@>=0.0.1 <0.1.0",
                  "resolved": "https://registry.npmjs.org/tr46/-/tr46-0.0.3.tgz"
                }
              }
            },
            "xml-name-validator": {
              "version": "2.0.1",
              "from": "xml-name-validator@>=2.0.1 <3.0.0",
              "resolved": "https://registry.npmjs.org/xml-name-validator/-/xml-name-validator-2.0.1.tgz"
            }
          }
        }
      }
    },
    "fs-extra": {
      "version": "0.30.0",
      "from": "fs-extra@latest",
      "resolved": "https://registry.npmjs.org/fs-extra/-/fs-extra-0.30.0.tgz",
      "dependencies": {
        "graceful-fs": {
          "version": "4.1.4",
          "from": "graceful-fs@>=4.1.2 <5.0.0",
          "resolved": "https://registry.npmjs.org/graceful-fs/-/graceful-fs-4.1.4.tgz"
        },
        "jsonfile": {
          "version": "2.3.1",
          "from": "jsonfile@>=2.1.0 <3.0.0",
          "resolved": "https://registry.npmjs.org/jsonfile/-/jsonfile-2.3.1.tgz"
        },
        "klaw": {
          "version": "1.3.0",
          "from": "klaw@>=1.0.0 <2.0.0",
          "resolved": "https://registry.npmjs.org/klaw/-/klaw-1.3.0.tgz"
        },
        "path-is-absolute": {
          "version": "1.0.0",
          "from": "path-is-absolute@>=1.0.0 <2.0.0",
          "resolved": "https://registry.npmjs.org/path-is-absolute/-/path-is-absolute-1.0.0.tgz"
        },
        "rimraf": {
          "version": "2.5.3",
          "from": "rimraf@>=2.2.8 <3.0.0",
          "resolved": "https://registry.npmjs.org/rimraf/-/rimraf-2.5.3.tgz",
          "dependencies": {
            "glob": {
              "version": "7.0.5",
              "from": "glob@>=7.0.5 <8.0.0",
              "resolved": "https://registry.npmjs.org/glob/-/glob-7.0.5.tgz",
              "dependencies": {
                "fs.realpath": {
                  "version": "1.0.0",
                  "from": "fs.realpath@>=1.0.0 <2.0.0",
                  "resolved": "https://registry.npmjs.org/fs.realpath/-/fs.realpath-1.0.0.tgz"
                },
                "inflight": {
                  "version": "1.0.5",
                  "from": "inflight@>=1.0.4 <2.0.0",
                  "resolved": "https://registry.npmjs.org/inflight/-/inflight-1.0.5.tgz",
                  "dependencies": {
                    "wrappy": {
                      "version": "1.0.2",
                      "from": "wrappy@>=1.0.0 <2.0.0",
                      "resolved": "https://registry.npmjs.org/wrappy/-/wrappy-1.0.2.tgz"
                    }
                  }
                },
                "inherits": {
                  "version": "2.0.1",
                  "from": "inherits@>=2.0.0 <3.0.0",
                  "resolved": "https://registry.npmjs.org/inherits/-/inherits-2.0.1.tgz"
                },
                "minimatch": {
                  "version": "3.0.2",
                  "from": "minimatch@>=3.0.2 <4.0.0",
                  "resolved": "https://registry.npmjs.org/minimatch/-/minimatch-3.0.2.tgz",
                  "dependencies": {
                    "brace-expansion": {
                      "version": "1.1.5",
                      "from": "brace-expansion@>=1.0.0 <2.0.0",
                      "resolved": "https://registry.npmjs.org/brace-expansion/-/brace-expansion-1.1.5.tgz",
                      "dependencies": {
                        "balanced-match": {
                          "version": "0.4.1",
                          "from": "balanced-match@>=0.4.1 <0.5.0",
                          "resolved": "https://registry.npmjs.org/balanced-match/-/balanced-match-0.4.1.tgz"
                        },
                        "concat-map": {
                          "version": "0.0.1",
                          "from": "concat-map@0.0.1",
                          "resolved": "https://registry.npmjs.org/concat-map/-/concat-map-0.0.1.tgz"
                        }
                      }
                    }
                  }
                },
                "once": {
                  "version": "1.3.3",
                  "from": "once@>=1.3.0 <2.0.0",
                  "resolved": "https://registry.npmjs.org/once/-/once-1.3.3.tgz",
                  "dependencies": {
                    "wrappy": {
                      "version": "1.0.2",
                      "from": "wrappy@>=1.0.0 <2.0.0",
                      "resolved": "https://registry.npmjs.org/wrappy/-/wrappy-1.0.2.tgz"
                    }
                  }
                }
              }
            }
          }
        }
      }
    },
    "minimist": {
      "version": "1.2.0",
      "from": "minimist@latest",
      "resolved": "https://registry.npmjs.org/minimist/-/minimist-1.2.0.tgz"
    },
    "mocha": {
      "version": "2.5.3",
      "from": "mocha@latest",
      "resolved": "https://registry.npmjs.org/mocha/-/mocha-2.5.3.tgz",
      "dependencies": {
        "commander": {
          "version": "2.3.0",
          "from": "commander@2.3.0",
          "resolved": "https://registry.npmjs.org/commander/-/commander-2.3.0.tgz"
        },
        "debug": {
          "version": "2.2.0",
          "from": "debug@2.2.0",
          "resolved": "https://registry.npmjs.org/debug/-/debug-2.2.0.tgz",
          "dependencies": {
            "ms": {
              "version": "0.7.1",
              "from": "ms@0.7.1",
              "resolved": "https://registry.npmjs.org/ms/-/ms-0.7.1.tgz"
            }
          }
        },
        "diff": {
          "version": "1.4.0",
          "from": "diff@1.4.0",
          "resolved": "https://registry.npmjs.org/diff/-/diff-1.4.0.tgz"
        },
        "escape-string-regexp": {
          "version": "1.0.2",
          "from": "escape-string-regexp@1.0.2",
          "resolved": "https://registry.npmjs.org/escape-string-regexp/-/escape-string-regexp-1.0.2.tgz"
        },
        "glob": {
          "version": "3.2.11",
          "from": "glob@3.2.11",
          "resolved": "https://registry.npmjs.org/glob/-/glob-3.2.11.tgz",
          "dependencies": {
            "inherits": {
              "version": "2.0.1",
              "from": "inherits@>=2.0.0 <3.0.0",
              "resolved": "https://registry.npmjs.org/inherits/-/inherits-2.0.1.tgz"
            },
            "minimatch": {
              "version": "0.3.0",
              "from": "minimatch@>=0.3.0 <0.4.0",
              "resolved": "https://registry.npmjs.org/minimatch/-/minimatch-0.3.0.tgz",
              "dependencies": {
                "lru-cache": {
                  "version": "2.7.3",
                  "from": "lru-cache@>=2.0.0 <3.0.0",
                  "resolved": "https://registry.npmjs.org/lru-cache/-/lru-cache-2.7.3.tgz"
                },
                "sigmund": {
                  "version": "1.0.1",
                  "from": "sigmund@>=1.0.0 <1.1.0",
                  "resolved": "https://registry.npmjs.org/sigmund/-/sigmund-1.0.1.tgz"
                }
              }
            }
          }
        },
        "growl": {
          "version": "1.9.2",
          "from": "growl@1.9.2",
          "resolved": "https://registry.npmjs.org/growl/-/growl-1.9.2.tgz"
        },
        "jade": {
          "version": "0.26.3",
          "from": "jade@0.26.3",
          "resolved": "https://registry.npmjs.org/jade/-/jade-0.26.3.tgz",
          "dependencies": {
            "commander": {
              "version": "0.6.1",
              "from": "commander@0.6.1",
              "resolved": "https://registry.npmjs.org/commander/-/commander-0.6.1.tgz"
            },
            "mkdirp": {
              "version": "0.3.0",
              "from": "mkdirp@0.3.0",
              "resolved": "https://registry.npmjs.org/mkdirp/-/mkdirp-0.3.0.tgz"
            }
          }
        },
        "mkdirp": {
          "version": "0.5.1",
          "from": "mkdirp@0.5.1",
          "resolved": "https://registry.npmjs.org/mkdirp/-/mkdirp-0.5.1.tgz",
          "dependencies": {
            "minimist": {
              "version": "0.0.8",
              "from": "minimist@0.0.8",
              "resolved": "https://registry.npmjs.org/minimist/-/minimist-0.0.8.tgz"
            }
          }
        },
        "supports-color": {
          "version": "1.2.0",
          "from": "supports-color@1.2.0",
          "resolved": "https://registry.npmjs.org/supports-color/-/supports-color-1.2.0.tgz"
        },
        "to-iso-string": {
          "version": "0.0.2",
          "from": "to-iso-string@0.0.2",
          "resolved": "https://registry.npmjs.org/to-iso-string/-/to-iso-string-0.0.2.tgz"
        }
      }
    }
  }
}
